\relax 
\@writefile{toc}{\contentsline {section}{\numberline {1}Data types converters}{1}}
\@writefile{toc}{\contentsline {paragraph}{Parameters:}{1}}
\@writefile{toc}{\contentsline {paragraph}{Returns:}{1}}
\@writefile{toc}{\contentsline {paragraph}{Parameters:}{1}}
\@writefile{toc}{\contentsline {paragraph}{Returns:}{1}}
\@writefile{toc}{\contentsline {paragraph}{Parameters:}{1}}
\@writefile{toc}{\contentsline {paragraph}{Returns:}{1}}
\@writefile{toc}{\contentsline {paragraph}{Parameters:}{1}}
\@writefile{toc}{\contentsline {paragraph}{Returns:}{1}}
\@writefile{toc}{\contentsline {paragraph}{Parameters:}{2}}
\@writefile{toc}{\contentsline {paragraph}{Returns:}{2}}
\@writefile{toc}{\contentsline {paragraph}{Parameters:}{2}}
\@writefile{toc}{\contentsline {paragraph}{Returns:}{2}}
\@writefile{toc}{\contentsline {paragraph}{Parameters:}{2}}
\@writefile{toc}{\contentsline {paragraph}{Returns:}{2}}
\@writefile{toc}{\contentsline {section}{\numberline {2}Parameters values getters}{2}}
\@writefile{toc}{\contentsline {paragraph}{Parameters:}{2}}
\@writefile{toc}{\contentsline {paragraph}{Returns:}{2}}
\@writefile{toc}{\contentsline {paragraph}{Parameters:}{2}}
\@writefile{toc}{\contentsline {paragraph}{Returns:}{3}}
\@writefile{toc}{\contentsline {paragraph}{Parameters:}{3}}
\@writefile{toc}{\contentsline {paragraph}{Returns:}{3}}
\@writefile{toc}{\contentsline {paragraph}{Parameters:}{3}}
\@writefile{toc}{\contentsline {paragraph}{Returns:}{3}}
\@writefile{toc}{\contentsline {paragraph}{Parameters:}{3}}
\@writefile{toc}{\contentsline {paragraph}{Returns:}{3}}
\@writefile{toc}{\contentsline {paragraph}{Parameters:}{3}}
\@writefile{toc}{\contentsline {paragraph}{Returns:}{3}}
\@writefile{toc}{\contentsline {paragraph}{Parameters:}{3}}
\@writefile{toc}{\contentsline {paragraph}{Returns:}{4}}
\@writefile{toc}{\contentsline {paragraph}{Parameters:}{4}}
\@writefile{toc}{\contentsline {paragraph}{Returns:}{4}}
\@writefile{toc}{\contentsline {section}{\numberline {3}Expressions data types checkers}{4}}
\@writefile{toc}{\contentsline {paragraph}{Parameters:}{4}}
\@writefile{toc}{\contentsline {paragraph}{Returns:}{4}}
\@writefile{toc}{\contentsline {paragraph}{Parameters:}{4}}
\@writefile{toc}{\contentsline {paragraph}{Returns:}{4}}
\@writefile{toc}{\contentsline {paragraph}{Parameters:}{4}}
\@writefile{toc}{\contentsline {paragraph}{Returns:}{4}}
\@writefile{toc}{\contentsline {paragraph}{Parameters:}{5}}
\@writefile{toc}{\contentsline {paragraph}{Returns:}{5}}
\@writefile{toc}{\contentsline {paragraph}{Parameters:}{5}}
\@writefile{toc}{\contentsline {paragraph}{Returns:}{5}}
\@writefile{toc}{\contentsline {paragraph}{Parameters:}{5}}
\@writefile{toc}{\contentsline {paragraph}{Returns:}{5}}
\@writefile{toc}{\contentsline {section}{\numberline {4}Port dataType printer}{5}}
\@writefile{toc}{\contentsline {paragraph}{Parameters:}{5}}
\@writefile{toc}{\contentsline {paragraph}{Returns:}{5}}
\@writefile{toc}{\contentsline {section}{\numberline {5}Arrays getters}{5}}
\@writefile{toc}{\contentsline {paragraph}{Parameters:}{5}}
\@writefile{toc}{\contentsline {paragraph}{Returns:}{6}}
\@writefile{toc}{\contentsline {section}{\numberline {6}Unique names getters}{6}}
\@writefile{toc}{\contentsline {paragraph}{Parameters:}{6}}
\@writefile{toc}{\contentsline {paragraph}{Returns:}{6}}
\@writefile{toc}{\contentsline {paragraph}{Parameters:}{6}}
\@writefile{toc}{\contentsline {paragraph}{Returns:}{6}}
